<svg
      xmlns="http://www.w3.org/2000/svg"
      width="10mm"
      height="97mm"
      version="1.1"
      viewBox="0 0 210 297"
    >
      <g>
        <g fillOpacity="1" strokeWidth="0.343">
          <path
            fill="#ffec14"
            d="M92.879 6.814c-.015 0-.047.022-.088.055-.037.03-.095.085-.153.139-.041.04-.074.067-.125.12-.2.2-.473.491-.799.85l-.247.278c-.267.298-.552.62-.866.982l-.09.105c-.178.207-.36.417-.548.638-.22.258-.445.524-.673.796-.056.068-.098.12-.153.184-.267.32-.525.63-.75.903-.674.821-1.16 1.441-1.494 1.914-.066.095-.127.183-.182.267-.11.166-.196.31-.261.437-.131.253-.178.432-.16.567.01.067.036.122.075.17.18.217.316.345.683.286.123-.02.271-.06.456-.126.185-.065.405-.154.673-.272a60.556 60.556 0 002.243-1.07c.494-.244 1.055-.523 1.693-.842a51.106 51.106 0 002.154-1.135c1.028-.576 1.706-1.023 1.706-1.145 0-.318-1.297-2.137-2.222-3.243a11.395 11.395 0 00-.457-.519 2.332 2.332 0 00-.323-.298c-.04-.027-.07-.04-.092-.04zm25.692 9.252l-.161.001c-.083 0-.166 0-.247.002-.058.001-.114.004-.17.006-.08.002-.158.005-.234.009-.056.002-.109.006-.162.01a9.184 9.184 0 00-.351.03 5.512 5.512 0 00-.298.04l-.153.03c-.038.009-.078.017-.11.027a1.273 1.273 0 00-.13.045l-.032.015a.378.378 0 00-.043.026l-.015.01a.165.165 0 00-.038.04.722.722 0 00-.05.144c-.145.527-.496 2.35-.842 4.403l-.305 1.81-.062.366-.022.128c-.175 1.013-.315 1.736-.443 2.131-.057.177-.112.29-.167.337a.097.097 0 01-.05.024l-.006.002a.086.086 0 01-.057-.019c-.076-.054-.155-.227-.243-.522a9.549 9.549 0 01-.14-.536c-.148-.629-.323-1.538-.544-2.741-.147-.803-.315-1.736-.509-2.804l-.233-1.286h-3.564c-1.355 0-2.21.015-2.758.075-.091.01-.171.022-.246.035-.119.02-.22.043-.304.07a1.064 1.064 0 00-.123.05.539.539 0 00-.282.277.795.795 0 00-.034.093c-.046.15-.195.934-.39 2.02-.02.11-.033.171-.053.288l-.057.323c-.218 1.23-.48 2.75-.752 4.382l-1.069 6.413 1.058.964 1.058.964-1.497 1.589c-.684.726-1.068 1.183-1.333 1.776-.099.223-.181.464-.257.746-.125.47-.23 1.054-.359 1.848-.062.383-.116.753-.16 1.095a12.153 12.153 0 00-.133 1.29c-.02.33-.014.542.023.58a.17.17 0 00.036.024.644.644 0 00.063.028l.05.017c.09.033.214.07.37.112l.062.017.357.09c.26.06.56.127.885.195a58.9 58.9 0 003.514.624c.276.038.514.065.699.08.092.007.171.01.234.01.125 0 .23-.008.322-.038a.48.48 0 00.162-.09c.015-.012.031-.023.046-.039a.681.681 0 00.078-.1c.01-.014.017-.032.026-.048.059-.103.114-.24.167-.422l.016-.05c.11-.396.218-.987.357-1.868l.028-.184.156-1.02c.113-.758.204-1.39.29-1.984l.05-.34c.145-.995.258-1.744.367-2.263.11-.52.215-.808.344-.883a.137.137 0 01.102-.016c.345.075.867 1.378 1.958 3.683l2.11 4.458 1.351-3.418 1.351-3.418.432 2.562a928.095 928.095 0 011.03 6.333l.597 3.77 3.26.568c.422.073.808.138 1.158.195.7.114 1.258.194 1.697.242.438.048.756.064.974.048.054-.004.102-.01.145-.017.105-.02.174-.052.21-.095.037-.044.041-.1.018-.166a2 2 0 01-.063-.355 5.477 5.477 0 01-.033-.498.285.285 0 00-.01-.067.788.788 0 00-.112-.24 1.923 1.923 0 00-.14-.186 3.176 3.176 0 00-.185-.2 5.076 5.076 0 00-.483-.419 6.526 6.526 0 00-.593-.406 8.688 8.688 0 01-1.89-1.546 9.152 9.152 0 01-.52-.616 9.468 9.468 0 01-.606-.887 9.992 9.992 0 01-.72-1.452 10.95 10.95 0 01-.686-2.658 11.605 11.605 0 01-.072-2.247 12.02 12.02 0 011.44-5 11.938 11.938 0 01.99-1.527l.815-1.068-1.007-6.48a427.62 427.62 0 00-.404-2.55c-.321-1.992-.593-3.57-.713-4.142a1.996 1.996 0 00-.054-.218.136.136 0 00-.034-.047l-.02-.016a.342.342 0 00-.042-.03l-.03-.016a.787.787 0 00-.155-.062 2.523 2.523 0 00-.222-.06l-.04-.008c-.056-.012-.12-.023-.184-.035a6.79 6.79 0 00-.373-.056 11.023 11.023 0 00-.273-.03l-.161-.016a15.613 15.613 0 00-.316-.024l-.15-.01a18.208 18.208 0 00-.342-.016c-.05-.002-.098-.005-.148-.006a18.643 18.643 0 00-.488-.009zm-47.682.256l-1.611 2.242c-.886 1.233-2.382 3.301-3.324 4.596l-1.713 2.353-.277-4.449c-.036-.573-.072-1.118-.107-1.627l-.007-.106-.007-.099c-.09-1.286-.171-2.276-.215-2.59a.384.384 0 00-.023-.108c-.01-.011-.147.014-.382.07a72.77 72.77 0 00-2.413.652c-.536.152-1.122.32-1.734.5l-1.008.296-3.439 1.009-.109 1.3-.009.102-.1 1.2.213-.034 1.122-.18 1.335-.213.349 4.555c.148 1.926.24 3.05.397 3.848.045.228.095.43.152.615.03.093.06.182.093.27.133.345.303.652.533 1.008.115.179.244.369.391.583a10.676 10.676 0 011.042 1.904 10.936 10.936 0 01.708 2.417 11.384 11.384 0 01.167 1.805 11.976 11.976 0 01-.176 2.198v.001a12.342 12.342 0 01-.591 2.175 12.5 12.5 0 01-.29.71 8.213 8.213 0 00-.507 1.415c-.145.597-.192 1.205-.174 2.03.005.206.014.426.026.663l.123 2.362 2.284-.22c1.257-.12 2.633-.314 3.057-.43.285-.077.465-.137.579-.475.057-.169.097-.407.125-.75.019-.23.032-.506.042-.84a108.318 108.318 0 00.024-1.933v-.001c.002-.533.002-1.14.002-1.832V37.69l10.634 5.32c1.462.73 2.868 1.429 4.157 2.065 1.29.636 2.462 1.209 3.459 1.691 1.494.723 2.591 1.24 3.088 1.454.082.036.148.063.197.081.049.018.08.027.092.027a.077.077 0 00.041-.012.142.142 0 00.038-.037c.147-.198.215-.98.197-2.244v-.002-.016a35.442 35.442 0 00-.017-.656l-.099-2.968-2.093-.572a13.927 13.927 0 01-1.844-.645 15.263 15.263 0 01-1.18-.563 15.245 15.245 0 01-1.117-.655 14.658 14.658 0 01-.822-.574c-.072-.053-.146-.105-.216-.16a13.591 13.591 0 01-.482-.391c-.074-.063-.143-.128-.215-.192-.156-.14-.308-.281-.454-.425-.07-.07-.143-.138-.211-.209a11.048 11.048 0 01-.578-.649 8.99 8.99 0 01-.497-.669 7.76 7.76 0 01-.283-.454c-.006-.01-.019-.022-.028-.033-.009-.01-.013-.018-.024-.028-.014-.013-.034-.028-.051-.042l-.041-.035c-.026-.019-.059-.04-.09-.06-.014-.01-.025-.02-.041-.03a4.705 4.705 0 00-.166-.101 9.821 9.821 0 00-.431-.237 30.071 30.071 0 00-1.917-.895 50.714 50.714 0 00-1.619-.663c-.564-.22-1.106-.433-1.603-.63-.497-.197-.948-.378-1.33-.533a36.015 36.015 0 01-1.18-.495.64.64 0 01-.105-.055c-.005-.004 0-.016.011-.036.035-.06.138-.19.298-.38.107-.126.24-.279.395-.454.155-.176.333-.375.531-.593.791-.875 1.897-2.065 3.128-3.36 1.847-1.944 3.431-3.678 4.099-4.474.167-.2.276-.34.318-.41.014-.024.02-.04.02-.047a.126.126 0 00-.021-.038 1.057 1.057 0 00-.054-.069 5.594 5.594 0 00-.197-.22c-.507-.543-1.671-1.686-3.007-2.945zm-44.426 1.217a22.625 22.625 0 00-1.029.02l-.146.006c-.25.011-.502.026-.755.046l-.056.005c-.246.02-.494.044-.743.071l-.104.011c-.254.03-.51.062-.767.1l-.147.02a28.245 28.245 0 00-1.601.285l-.123.026c-.263.055-.527.114-.792.177l-.144.035c-.26.063-.522.13-.786.2l-.039.01a35.062 35.062 0 00-1.789.535l-.139.047c-.252.083-.504.169-.758.259l-.119.041c-.275.098-.551.201-.829.307l-.172.066c-.283.109-.568.221-.854.339l-.052.022c-.274.112-.55.23-.827.35l-.156.067c-.284.125-.568.252-.854.384l-.164.076a57.768 57.768 0 00-1.73.84c-.345.175-.627.328-.883.471-.27.151-.506.29-.687.413l-.077.051a3.765 3.765 0 00-.162.12 1.956 1.956 0 00-.239.216.989.989 0 00-.08.099c-.09.128-.112.242-.083.353.031.12.118.324.246.588.129.264.299.588.497.949.396.723.904 1.595 1.414 2.438.255.422.51.835.753 1.219.243.383.472.737.675 1.038.203.3.38.549.516.722.102.13.18.217.232.253.017.011.03.017.04.017a.451.451 0 00.088-.011c.037-.008.08-.02.13-.034a10.52 10.52 0 001.31-.534c.052-.025.1-.045.15-.067.064-.029.128-.056.19-.08a3.87 3.87 0 01.414-.142c.256-.069.464-.086.602-.048a.36.36 0 01.055.02.235.235 0 01.082.06c.038.044.105.154.192.314.174.321.433.845.716 1.452.141.303.289.627.436.957 2.767 6.233 8.73 19.488 10.37 23.066.234.511.38.825.416.893a1.157 1.157 0 00.161.232c.091.1.193.178.293.222.1.044.2.055.282.025.222-.082 1.484-.499 2.804-.927.33-.107.653-.216.951-.32.299-.104.574-.203.812-.293l.201-.078c.149-.058.284-.113.388-.158.074-.033.136-.062.183-.086a.475.475 0 00.094-.059c.047-.044-.026-.53-.19-1.322-.272-1.32-.795-3.495-1.43-5.906a584.183 584.183 0 01-1.283-4.963c-.321-1.278-.51-2.075-.49-2.084h.001c.008-.003.073-.05.13-.092.025-.017.024-.015.056-.039l.451-.331c.374-.277.878-.655 1.424-1.066a18.38 18.38 0 002.03-1.78c.107-.106.211-.215.315-.324.207-.22.41-.443.606-.67v-.001a20.28 20.28 0 00.52-.627l.055-.067a20.136 20.136 0 00.942-1.298c.032-.05.066-.098.099-.147.08-.124.159-.247.236-.37v-.001a17.641 17.641 0 00.841-1.505 15.469 15.469 0 00.513-1.14c.052-.126.1-.253.148-.38a12.697 12.697 0 00.366-1.13 11.282 11.282 0 00.178-.743 9.625 9.625 0 00.162-1.089c.03-.333.04-.659.032-.98a7.684 7.684 0 00-.17-1.417 7.42 7.42 0 00-.434-1.356 8.974 8.974 0 00-1.317-2.142 11.322 11.322 0 00-.736-.82 15.859 15.859 0 00-1.227-1.117c-.27-.22-.539-.422-.812-.608a9.784 9.784 0 00-1.715-.94 11.01 11.01 0 00-.953-.355 16.266 16.266 0 00-2.216-.527 29.265 29.265 0 00-1.865-.255l-.182-.017a21.17 21.17 0 00-1.014-.067l-.131-.006a22.1 22.1 0 00-.588-.014h-.159zm63.846 1.74a11.907 11.907 0 00-1.393.085l-.035.004a11.5 11.5 0 00-1.412.267 21.236 21.236 0 00-.994.282c-.168.051-.337.102-.499.156l-.35.121-.213.08c-.087.032-.173.065-.257.098-.067.027-.135.052-.2.08a15.04 15.04 0 00-.94.423 12.805 12.805 0 00-.584.308 11.407 11.407 0 00-1.066.684 9.645 9.645 0 00-2.133 2.13c-.025.033-.048.068-.072.102a10.264 10.264 0 00-.738 1.21 8.337 8.337 0 00-.348.735 10.348 10.348 0 00-.726 3.002l-.003.034a11.388 11.388 0 00-.034 1.543c.008.175.02.348.036.52v.001a9.622 9.622 0 00.396 1.988c.05.156.104.31.162.46.048.126.103.253.163.38.18.383.412.77.683 1.153.039.054.081.108.122.162a10.288 10.288 0 001.144 1.308 11.672 11.672 0 001.127.967c.262.196.529.378.798.542.27.165.54.312.811.438a5.768 5.768 0 00.613.25c.215.075.447.143.695.203.66.162 1.427.275 2.238.338a20.05 20.05 0 002.504.039 18.321 18.321 0 001.83-.17c.584-.086 1.132-.201 1.618-.346a24.47 24.47 0 001.72-.592c.292-.113.577-.228.836-.338.259-.11.491-.216.68-.311.12-.06.244-.126.37-.194.25-.138.511-.29.774-.453a22.55 22.55 0 002.228-1.578c.316-.257.587-.498.79-.705.069-.07.13-.134.181-.195a1.798 1.798 0 00.173-.24.491.491 0 00.029-.064.173.173 0 00.011-.1c-.013-.05-.086-.153-.206-.297a7.952 7.952 0 00-.215-.242c-.246-.27-.586-.616-.977-.995-.261-.253-.545-.52-.84-.79l-2.14-1.96-1.561 1.191a9.918 9.918 0 01-.933.622h-.001a11.398 11.398 0 01-.842.446c-.06.029-.12.059-.179.086-.064.03-.128.057-.192.085-.165.072-.329.14-.49.201a7.892 7.892 0 01-.948.299c-.181.043-.35.073-.505.091-.096.011-.187.018-.27.018-.11 0-.208-.008-.293-.027a.763.763 0 01-.08-.023c-.014-.005-.022-.015-.025-.03-.006-.032.01-.085.045-.157.122-.251.485-.736 1.008-1.354l.225-.26c.171-.198.355-.405.552-.623.088-.097.17-.19.263-.29.194-.212.399-.43.61-.651a861.042 861.042 0 004.444-4.682l1.362-1.456-1.143-1.18a7.545 7.545 0 00-.38-.365 7.957 7.957 0 00-1.116-.842 9.206 9.206 0 00-.473-.279 9.681 9.681 0 00-1.864-.797 11.442 11.442 0 00-.995-.267 11.66 11.66 0 00-.93-.166 12.293 12.293 0 00-.58-.066 11.997 11.997 0 00-.592-.037c-.157-.006-.315-.01-.473-.01zm49.231.69a1.24 1.24 0 00-.111.001.246.246 0 00-.065.011.495.495 0 00-.201.156 1.09 1.09 0 00-.16.281 2.23 2.23 0 00-.142.814c0 .493.058.786.267 1.004a.925.925 0 00.164.135c.062.042.133.082.213.12.121.059.263.115.43.173l1.074.374-.218 2.35c-.08.851-.125 1.402-.091 1.841.006.073.013.143.023.211.002.011.005.021.006.032.018.109.043.212.074.314.004.013.007.028.012.041l.026.071c.014.039.027.077.044.116.08.187.185.378.324.596.14.218.312.463.522.76.102.143.199.284.291.422.37.553.667 1.067.9 1.58a7.5 7.5 0 01.419 1.162c.142.528.227 1.08.266 1.693.028.459.03.952.01 1.494v.027c-.008.172-.016.35-.027.532a12.693 12.693 0 01-.115 1.109c-.005.032-.012.062-.016.094a12.718 12.718 0 01-.892 3.09v-.001c-.074.17-.15.337-.231.503-.028.057-.058.112-.086.168a13.012 13.012 0 01-.738 1.286 13.699 13.699 0 01-1.396 1.785 8.493 8.493 0 00-.641.757 2.943 2.943 0 00-.443.867c-.04.126-.071.26-.098.405-.068.364-.104.804-.134 1.387l-.11 2.113 1.372.227a238.6 238.6 0 002.806.445l1.434.217.357-1.802c.098-.495.276-1.447.482-2.582.207-1.135.443-2.453.658-3.68l.782-4.46.214 2.402c.03.33.06.795.088 1.352a172.364 172.364 0 01.175 6.367c.013 1.463.047 2.877.092 3.978.023.55.048 1.022.075 1.382.013.18.026.332.04.452l.02.155.021.104a1.037 1.037 0 00.204.388v.001c.253.302.73.56 1.563.855a24.782 24.782 0 002.182.64l.001.001c.118.028.23.053.333.074.103.021.197.04.28.053.168.027.293.039.363.031a.078.078 0 00.037-.017.795.795 0 00.159-.22c.261-.462.722-1.605 1.404-3.486a269.838 269.838 0 001.664-4.764c.657-1.927 1.417-4.2 2.288-6.834.694-2.1 1.358-4.118 1.962-5.97.605-1.852 1.15-3.538 1.61-4.97.46-1.433.833-2.613 1.092-3.453.259-.84.404-1.34.407-1.415.004-.105-.045-.202-.164-.299a1.31 1.31 0 00-.235-.145 3.4 3.4 0 00-.354-.149 6.554 6.554 0 00-.484-.157c-.185-.054-.394-.11-.629-.17a35.07 35.07 0 00-.785-.188 94.652 94.652 0 00-2.372-.502 59.69 59.69 0 00-1.636-.298c-.409-.065-.659-.092-.68-.068a.874.874 0 00-.051.151c-.08.275-.242.904-.457 1.77a425.807 425.807 0 00-1.075 4.457c-.101.43-.202.852-.3 1.258-.495 2.034-.94 3.715-1.19 4.51-.033.104-.057.168-.083.24-.013.038-.031.097-.043.126a.835.835 0 01-.043.096c-.012.021-.022.032-.03.032-.007 0-.017-.012-.029-.037a1.039 1.039 0 01-.043-.108 6.961 6.961 0 01-.127-.416 45.345 45.345 0 01-.389-1.53 173.413 173.413 0 01-.52-2.264c-.19-.85-.392-1.785-.598-2.764a990.37 990.37 0 00-1.077-5.057c-.284-1.309-.47-2.134-.49-2.161-.002-.003-.011-.008-.016-.012-.007-.005-.013-.01-.026-.017l-.038-.015-.046-.018c-.032-.011-.086-.026-.129-.038-.054-.016-.103-.032-.174-.05-.064-.017-.147-.037-.223-.055-.072-.017-.138-.034-.22-.052-.098-.023-.21-.046-.32-.07l-.21-.046c-.211-.044-.472-.093-.713-.141-.247-.049-.482-.096-.753-.147-.232-.044-.48-.088-.723-.132a131.9 131.9 0 00-.934-.168l-.672-.114c-.33-.056-.66-.111-.979-.163l-.671-.105c-.364-.056-.73-.113-1.044-.157l-.102-.015-.426-.056-.182-.024-.316-.035-.175-.019a5.463 5.463 0 00-.327-.022h-.012zm-50.767 3.694c1.11.02 2.271.357 2.995.914l.77.593-3.29 3.774c-3.855 4.423-3.3 3.887-3.834 3.696-.669-.239-1.792-2.676-1.792-3.888 0-2.332 1.803-4.543 4.076-4.997a5.08 5.08 0 011.075-.092zm-58.945 2.72c1.71-.01 2.115.123 3.163 1.043 1.34 1.176 1.782 2.651 1.407 4.692-.176.954-.76 1.797-2.256 3.26-1.11 1.084-2.157 1.972-2.326 1.972-.169 0-1-2.277-1.85-5.06-1.54-5.051-1.54-5.062-.82-5.478.397-.23 1.604-.422 2.682-.429zm103.733 1.426a9.523 9.523 0 00-.448.014l-.069.004a9.68 9.68 0 00-.429.037l-.082.009c-.145.016-.29.036-.435.06-.02.002-.041.006-.062.01a10.078 10.078 0 00-.925.199l-.05.013a10.426 10.426 0 00-.948.305c-.024.008-.048.018-.071.027-.3.115-.6.244-.895.389l-.06.03c-.141.07-.281.143-.42.22l-.08.045a11.2 11.2 0 00-.413.243l-.054.034a11.362 11.362 0 00-.849.59l-.059.045c-.133.102-.264.209-.395.319l-.061.052c-.132.113-.262.229-.39.348l-.041.04a13.015 13.015 0 00-1.458 1.633 11.497 11.497 0 00-.847 1.299c-.001 0 0 0 0 0a10.53 10.53 0 00-.445.888h-.001a9.971 9.971 0 00-.35.9 9.295 9.295 0 00-.254.905l-.015.076a8.583 8.583 0 00-.17 2.624 7.961 7.961 0 001.908 4.483 8.805 8.805 0 00.66.695c.119.112.24.222.367.329a4.806 4.806 0 00.399.303c.07.048.143.094.216.14a5.522 5.522 0 00.708.366 7.271 7.271 0 001.062.369c.094.024.188.048.284.07a8.926 8.926 0 00.583.114c.197.033.398.059.602.08a10.735 10.735 0 002.508-.044 10.858 10.858 0 001.251-.241 10.02 10.02 0 001.203-.392 8.971 8.971 0 00.89-.414c.242-.126.48-.26.712-.403a11.474 11.474 0 002.908-2.595 11.562 11.562 0 001.864-3.315c.263-.734.444-1.485.532-2.235a8.548 8.548 0 00.029-1.788 7.747 7.747 0 00-.23-1.305 7.385 7.385 0 00-.234-.726l-.024-.061a7.957 7.957 0 00-.092-.228l-.041-.095a7.908 7.908 0 00-.083-.182c-.017-.038-.036-.075-.054-.112a7.345 7.345 0 00-.39-.699l-.052-.083a7.156 7.156 0 00-.126-.186l-.037-.055a7.164 7.164 0 00-.361-.467l-.042-.047a6.987 6.987 0 00-.148-.169l-.065-.07a7.122 7.122 0 00-.13-.135l-.079-.078a6.945 6.945 0 00-.346-.318l-.075-.064a7.184 7.184 0 00-.16-.129l-.058-.046a7.257 7.257 0 00-.195-.145l-.033-.025a7.362 7.362 0 00-.485-.316l-.051-.03a7.397 7.397 0 00-.188-.107l-.085-.046a7.57 7.57 0 00-.974-.436l-.076-.028a8.049 8.049 0 00-.244-.082l-.022-.008h-.005a8.326 8.326 0 00-.571-.159l-.044-.011a8.492 8.492 0 00-.242-.053c-.025-.006-.05-.01-.076-.015a8.656 8.656 0 00-1.107-.144l-.08-.005a9.402 9.402 0 00-.227-.01l-.079-.003c-.1-.002-.2-.003-.3-.002zm-1.508 1.985c.388-.013.333.276-.241.85-2.386 2.387.943 5.806 3.875 3.98.614-.382 1.115-.938 1.115-1.235 0-.297.155-.444.343-.328.56.346.39 1.979-.327 3.156-1.352 2.217-4.017 3.046-6.185 1.923-1.49-.771-2.752-2.614-2.75-4.014.002-1.476 1.063-3.07 2.498-3.751.8-.38 1.37-.572 1.672-.581zm-81.7.157c-.185 0-.37.003-.557.01l-.047.003a12.763 12.763 0 00-1.638.179 10.403 10.403 0 00-1.037.243 8.055 8.055 0 00-.48.16 6.39 6.39 0 00-.445.183 9.206 9.206 0 00-1.031.563c-.175.11-.35.226-.526.349-.06.042-.12.08-.18.124-1.746 1.269-3.434 3.146-4.275 4.856a8.107 8.107 0 00-.32.748 11.03 11.03 0 00-.646 3.063c-.027.385-.036.77-.025 1.148a10.663 10.663 0 00.175 1.647 8.668 8.668 0 00.184.76c.024.082.05.162.076.24v.001c.079.237.169.463.27.676.033.071.068.14.104.209.153.29.334.578.538.86v.001a8.82 8.82 0 00.675.824 9.806 9.806 0 001.925 1.614 7.868 7.868 0 00.9.488 3.77 3.77 0 00.526.183c1.885.502 5.488.173 7.366-.744a12.225 12.225 0 001.669-.986 11.973 11.973 0 003.054-3.132c.106-.16.207-.322.305-.486l.07-.114a11.607 11.607 0 00.763-1.56h-.001a11.198 11.198 0 00.583-1.946c.11-.547.178-1.095.202-1.638a9.804 9.804 0 00-.105-1.926 8.982 8.982 0 00-.285-1.228 7.979 7.979 0 00-.758-1.71 7.601 7.601 0 00-1.163-1.493 7.594 7.594 0 00-1.285-1.029 8.158 8.158 0 00-.595-.347 5 5 0 00-.394-.185 6.317 6.317 0 00-.434-.16h-.001a6.995 6.995 0 00-.47-.137 8.773 8.773 0 00-1.022-.198 12.26 12.26 0 00-1.664-.113zM49.2 32.233c.266.01.118.277-.418.813-1.073 1.073-1.073 2.389 0 3.462 1.473 1.473 4.134 1.061 5.142-.796l.507-.935.014 1.475c.02 2.07-.788 3.43-2.496 4.206-1.797.816-2.447.816-4.244 0-3.437-1.56-3.37-6.327.11-7.781.72-.301 1.178-.45 1.385-.444z"
          ></path>
          <path
            fill="#23378e"
            d="M18.264 49.445c-3.148-7.124-5.845-13.079-5.992-13.233-.148-.155-.83-.046-1.517.24-1.196.5-1.27.49-1.737-.233-1.277-1.98-6.712-11.315-6.712-11.529 0-1.091 6.768-5.398 11.29-7.185 10.684-4.222 20.28-3.544 25.607 1.81 2.554 2.568 3.388 4.526 3.404 7.999.008 1.557.091 2.825.185 2.82.095-.006.479-.242.853-.526 1.07-.808 4.884-1.865 6.732-1.865 1.578 0 1.68-.053 1.68-.888 0-.84-.072-.875-1.322-.664l-1.32.223-.221-2.338c-.122-1.285-.222-3.042-.223-3.904l-.003-1.566 1.973-.911c1.69-.78 14.618-5.048 15.291-5.048.129 0 .234.38.234.846v.846l1.549-1.045c.851-.574 1.69-.994 1.863-.932.174.062 1.976 1.58 4.006 3.373 5.445 4.81 5.13 4.605 6.32 4.111.559-.231 1.016-.503 1.016-.604 0-.1-.395-.7-.878-1.334l-.878-1.15 5.574-6.37c5.323-6.084 7.81-8.259 8.53-7.462.572.633 5.882 8.758 5.778 8.84-.063.049-1.927 1.05-4.145 2.223-2.217 1.174-4.031 2.279-4.031 2.455 0 .176.467.32 1.038.32 1.462 0 4.651 1.182 6.033 2.236 1.273.97 1.847.883 1.854-.283.017-2.675 1.32-3.325 6.663-3.325 3.525 0 4.042-.082 5.392-.854 1.403-.802 1.797-.854 6.519-.858l5.025-.004.365 2.145c.201 1.18.702 4.306 1.113 6.948.411 2.641.77 4.834.798 4.873.027.038.82-.312 1.762-.778.942-.467 2.693-1.048 3.892-1.292l2.178-.445-.062-3.65-.063-3.65 1.453-.741 1.452-.742 7.487 1.65c6.032 1.33 7.487 1.759 7.487 2.211 0 .9.363 1.027 1.403.49.898-.465 1.428-.396 6.904.909 3.262.777 6.065 1.536 6.227 1.687.163.152-2.437 8.476-5.778 18.499l-6.075 18.223-1.34.684-1.34.684-4.632-1.448-4.633-1.448v-1.812c0-1.6-.09-1.831-.772-1.98-.709-.154-7.974-1.217-8.32-1.217-.083 0-.09-.193-.018-.429.073-.236.22-1.29.328-2.344l.197-1.915-2.088.543-2.087.543.211 1.591c.206 1.555.181 1.61-1.062 2.343l-1.273.751-6.196-1.08c-3.408-.595-6.463-1.157-6.788-1.249-.413-.116-.66-.678-.816-1.862-.124-.932-.29-1.695-.37-1.695-.079 0-.6.236-1.157.524-1.006.52-1.018.515-1.59-.686-.652-1.367-.785-1.41-2.153-.703-.891.46-1.532.421-6.846-.42-6.526-1.036-6.11-.744-5.517-3.87.19-1 .282-1.881.205-1.957-.076-.077-.925.26-1.887.746-.961.488-2.328 1.006-3.036 1.153l-1.288.268-.095 4.654-.095 4.655-1.31.59-1.308.59-9.544-4.659c-5.25-2.563-9.597-4.66-9.661-4.66-.065 0-.117 1.464-.117 3.253v3.253l-1.44.734c-.947.483-3.243.995-6.691 1.493l-5.25.758-.04-1.057a13.123 13.123 0 00-.258-2.004l-.217-.947-1.701 1.213c-4.755 3.388-11.107 2.916-14.85-1.104-.804-.863-1.462-1.414-1.462-1.225 0 .19.443 2.03.983 4.092l.983 3.747-1.243.893c-.961.691-11.463 4.4-12.459 4.4-.113 0-2.781-5.829-5.93-12.952zm13.378 6.784c1.32-.429 2.504-.876 2.629-.994s-.605-3.371-1.621-7.229c-1.017-3.857-1.814-7.028-1.772-7.046.043-.018.97-.706 2.06-1.528 3.807-2.869 6.667-7.467 7.012-11.273.24-2.653-.753-4.98-3.038-7.118-2.195-2.052-4.106-2.868-7.824-3.337-5.156-.651-10.986.605-17.46 3.763-2.448 1.194-3.167 1.698-3.052 2.14.254.968 4.042 7.224 4.375 7.224.171 0 .858-.26 1.527-.58.74-.353 1.324-.453 1.493-.257.152.177.757 1.403 1.344 2.724 3.163 7.123 10.5 23.418 10.786 23.958.184.345.515.56.736.48a170.73 170.73 0 012.805-.927zm-3.675-23.94c-1.54-5.05-1.542-5.061-.821-5.477.397-.23 1.604-.422 2.682-.429 1.71-.01 2.115.123 3.163 1.043 1.34 1.176 1.782 2.651 1.407 4.692-.176.954-.759 1.797-2.256 3.26-1.11 1.084-2.157 1.972-2.326 1.972-.169 0-1-2.277-1.85-5.06zm3.85.515c1.32-2.164.451-4.374-1.72-4.374-.566 0-1.029.09-1.029.2 0 .716 1.534 5.29 1.774 5.29.162 0 .601-.503.975-1.116zm125.968 8.317c2.776-8.395 5.058-15.51 5.07-15.808.018-.417-.822-.723-3.606-1.317-1.996-.426-3.676-.722-3.733-.658-.057.064-.77 2.934-1.582 6.378-.813 3.444-1.573 6.262-1.69 6.262-.115 0-.883-3.204-1.705-7.12-.823-3.915-1.528-7.163-1.567-7.218-.2-.274-9.177-1.825-9.608-1.66-.291.112-.503.639-.503 1.251 0 .877.184 1.123 1.074 1.433l1.074.374-.218 2.35c-.211 2.272-.181 2.401.94 3.981 1.63 2.298 2.044 3.836 1.86 6.911-.18 2.981-1.393 5.785-3.475 8.034-1.065 1.151-1.219 1.55-1.316 3.416l-.11 2.112 1.372.228c.755.125 2.018.326 2.806.445l1.434.217.357-1.802c.197-.99.71-3.809 1.14-6.262l.782-4.46.215 2.402c.118 1.32.236 4.795.262 7.72.026 2.924.138 5.656.249 6.07.15.56.74.925 2.311 1.426 1.16.37 2.337.648 2.614.617.35-.039 2.068-4.782 5.553-15.322zm-93.12 8.024c.76-.206.772-.292.772-5.832v-5.622l10.634 5.32c5.849 2.925 10.796 5.318 10.993 5.318.23 0 .323-1.069.26-2.967l-.1-2.968-2.093-.573c-3.329-.91-6.496-3.15-7.9-5.585-.165-.287-2.148-1.243-4.406-2.124-2.26-.88-4.158-1.652-4.22-1.713-.061-.062 1.903-2.233 4.365-4.824 2.461-2.59 4.458-4.81 4.436-4.93-.022-.12-1.498-1.593-3.279-3.272l-3.238-3.052-1.611 2.242c-.886 1.234-2.382 3.302-3.324 4.597l-1.713 2.353-.277-4.449c-.152-2.446-.313-4.485-.358-4.53-.045-.045-2.084.505-4.53 1.222L54.63 19.06l-.109 1.302-.11 1.3 1.336-.213 1.335-.213.349 4.554c.337 4.405.39 4.613 1.566 6.325 2.207 3.207 2.532 7.453.86 11.21-.624 1.4-.753 2.213-.655 4.107l.123 2.363 2.285-.22c1.256-.121 2.632-.314 3.056-.43zm61.93.123c-.047-.139-.09-.522-.096-.853-.006-.335-.678-1.005-1.523-1.517-5.057-3.068-6.047-10.71-2.064-15.933l.815-1.068-1.007-6.48c-.553-3.565-1.08-6.674-1.171-6.91-.186-.486-4.83-.621-5.122-.15-.095.154-.496 2.2-.892 4.547-1.117 6.633-.998 6.719-2.547-1.824l-.234-1.287h-3.564c-3.095 0-3.588.08-3.747.6-.1.331-.664 3.487-1.252 7.014l-1.069 6.413 1.058.964 1.058.964-1.497 1.588c-1.368 1.453-1.536 1.829-1.949 4.371-.248 1.53-.37 2.864-.269 2.964.238.239 5.261 1.198 6.27 1.198.73 0 .816-.243 1.358-3.86 1.062-7.096.704-6.888 3.11-1.803l2.11 4.459 1.352-3.418 1.351-3.418.432 2.562c.237 1.409.7 4.259 1.029 6.333l.598 3.77 3.26.568c3.383.588 4.348.636 4.202.206zm-74.71-.93c7.607-3.714 9.056-14.1 2.454-17.594-1.987-1.052-5.91-1.06-8.19-.016-2.263 1.036-4.891 3.612-6.011 5.893-1.254 2.553-1.335 6.316-.183 8.492.818 1.546 2.43 3.056 4.038 3.787 1.647.747 5.82.45 7.892-.561zm-4.18-7.88c-3.438-1.561-3.37-6.327.109-7.781 1.647-.688 1.92-.584.967.369-1.073 1.073-1.073 2.389 0 3.462 1.473 1.473 4.134 1.061 5.142-.796l.507-.935.014 1.475c.02 2.07-.788 3.43-2.496 4.206-1.797.815-2.447.815-4.244 0zm87.12 4.859c4.857-2.148 7.776-7.883 6.29-12.356-2.007-6.042-10.12-6.967-15.186-1.73-4.159 4.299-4.247 10.005-.209 13.443 2.005 1.707 6.054 1.993 9.105.643zm-4.192-7.177c-1.49-.771-2.752-2.614-2.75-4.014.002-1.476 1.063-3.07 2.498-3.751 1.831-.87 2.452-.752 1.43.27-2.385 2.385.944 5.805 3.876 3.979.614-.382 1.115-.938 1.115-1.235 0-.297.155-.444.344-.328.559.346.39 1.978-.328 3.155-1.352 2.218-4.017 3.047-6.185 1.924zm-37.381.716c1.025-.304 2.481-.862 3.236-1.241 1.923-.966 4.67-3.095 4.556-3.53-.053-.2-1.06-1.245-2.237-2.323l-2.142-1.96-1.56 1.191c-1.525 1.164-3.926 2.076-4.733 1.798-.222-.077.984-1.591 2.679-3.366a861.304 861.304 0 004.444-4.682l1.362-1.456-1.144-1.18c-2.341-2.415-6.525-3.425-10.243-2.472-4.19 1.073-6.692 2.893-8.19 5.957-1.153 2.354-1.304 5.592-.374 8 .777 2.014 3.106 4.285 5.252 5.124 2.158.842 6.5.91 9.094.14zm-7.838-6.216c-.669-.239-1.792-2.676-1.792-3.888 0-2.332 1.803-4.543 4.076-4.998 1.364-.272 3.105.08 4.07.823l.77.593-3.29 3.774c-3.855 4.423-3.299 3.887-3.834 3.696zm2.496-4.575c2.096-2.494 2.184-2.723 1.041-2.723-1.167 0-2.81.854-3.26 1.696-.606 1.132-.407 3.156.304 3.088.11-.01.972-.938 1.915-2.061zM75.73 30.66c0-1.038-.123-1.887-.273-1.887-.15 0-.856.596-1.569 1.326l-1.294 1.326 1.31.543c.722.299 1.427.551 1.569.561.141.01.257-.831.257-1.87zm16.383-17.465c2.123-1.058 3.86-2.084 3.86-2.28 0-.463-2.745-4.1-3.094-4.1-.147 0-1.762 1.783-3.589 3.962-2.66 3.174-3.242 4.059-2.924 4.442.48.579.64.523 5.747-2.024z"
          ></path>
        </g>
      </g>
    </svg>